{
  "name": "weetmana-mymodule",
  "version": "0.1.0",
  "author": "weetmana",
  "summary": "",
  "license": "Apache-2.0",
  "source": "",
  "dependencies": [

  ],
  "operatingsystem_support": [
    {
      "operatingsystem": "windows",
      "operatingsystemrelease": [
        "10"
      ]
    }
  ],
  "requirements": [
    {
      "name": "puppet",
      "version_requirement": ">= 4.7.0 < 6.0.0"
    }
  ],
  "pdk-version": "1.6.1",
  "template-url": "file://C:/Program Files/Puppet Labs/DevelopmentKit/share/cache/pdk-templates.git",
  "template-ref": "1.6.1-0-g6b0d497"
}
